{
   "general":{
      "package":"docker-ce",
      "name":"docker-ce",
      "version":"18.09.0",
      "depends":[],
      "conflicts":[],
      "developer":"https://www.docker.com/",
      "maintainer":"Luke Jones",
      "email":"jones_ld@protonmail.com",
      "website":"https://www.docker.com/",
      "architecture":"x86-64",
      "firmware":"3.0.0", 
      "default-lang": "en-US", 
      "model":[ 
        	"70xx","50xx","51xx","61xx","62xx","31xx","32xx","63xx","64xx" 
        ]
   },
   "register":{      
	   "symbolic-link":{
		 "/bin":["cgroupfs-mount", "docker", "containerd", "ctr", "containerd-shim", "dockerd", "docker-init" , "docker-proxy", "runc", "docker-compose"]
		},
       "boot-priority":{
         "start-order":50, 
         "stop-order":50 
        }
   }
}
